Open Vein :== 0 :== 10 :== 5 :== 1:12/01/14,2:31/05/14,3:22/08/14,4:12/12/14,5:02/02/15
EVH :== 0 :== 40 :== 5 :== 1:14/01/14,2:31/06/14,3:24/09/14,4:14/12/14,5:03/03/15
Radial :== 0 :== 20 :== 0
IMA :== 0 :== 20 :== 3 :== 1:14/02/14,2:31/03/14,3:24/04/14 
Sternotomy :== 0 :== 30 :== 2 :== 1:14/04/14,2:28/04/15
Sternal Closure :== 0 :== 30 :== 3 :== 1:14/09/14,2:31/01/15,3:24/02/15
